…
Here are journals, with a bit of format processing:


```R
esummary %>%
    extract_from_esummary("fulljournalname") %>%
    lapply(., function(x) gsub(":.*", "", x)) %>% # some journals seem to use sub-title too
    unlist %>% table %>% sort(decreasing = T) %>% as_tibble %>% print
```

    # A tibble: 31 × 2
      .                                            n
      <chr>                                    <int>
    1 "Scientific reports"                         7
    2 "bioRxiv "                                   5
    3 "Nature"                                     4
    4 "Genome biology and evolution"               3
    5 "PLoS genetics"                              3
    6 "Current biology "                           2
    7 "eLife"                                      2
    8 "Environmental microbiology"                 2
    9 "Genetics"                                   2
    10 "Molecular and biochemical parasitology"     2
    # ℹ 21 more rows



The `source` item may be even more useful, as it's already formatted the way most people like:


```R
esummary %>%
    extract_from_esummary("source") %>%
    unlist %>% table %>% sort(decreasing = T) %>% as_tibble %>% print
```

    # A tibble: 31 × 2
      .                         n
      <chr>                 <int>
    1 Sci Rep                   7
    2 bioRxiv                   5
    3 Nature                    4
    4 Genome Biol Evol          3
    5 PLoS Genet                3
    6 Curr Biol                 2
    7 Elife                     2
    8 Environ Microbiol         2
    9 Genetics                  2
    10 Mol Biochem Parasitol     2
    # ℹ 21 more rows
…
```R
papers <- esummary %>%
    lapply(extract, c("uid", "title", "fulljournalname", "source","pubdate", "sortpubdate", "issue", "volume", "pages")) %>%
    bind_rows %>%
    mutate(
        journalname = stringr::str_remove(fulljournalname, ":.*"),
        year = stringr::str_extract(sortpubdate, "\\d{4}"),
        pages = stringr::str_replace(pages, "-","--")
    )

papers %>% print
```

    # A tibble: 57 × 11
      uid      title  fulljournalname source pubdate sortpubdate issue volume pages
      <chr>    <chr>  <chr>           <chr>  <chr>   <chr>       <chr> <chr>  <chr>
    1 40604287 Ancie… Nature          Nature 2025 A… 2025/08/01… "807… "644"  "122…
    2 40454862 Genom… Molecular ecol… Mol E… 2025 J… 2025/06/02… ""    ""     "e17…
    3 40169722 Perfo… Genetics        Genet… 2025 M… 2025/05/08… "1"   "230"  ""
    4 39979458 Autho… Nature          Nature 2025 M… 2025/03/01… "805… "639"  "E14"
    5 39910300 The g… Nature          Nature 2025 M… 2025/03/01… "805… "639"  "132…
    6 39091721 Long … bioRxiv : the … bioRx… 2024 J… 2024/07/23… ""    ""     ""
    7 39013011 Testi… Genetics        Genet… 2024 S… 2024/09/04… "1"   "228"  ""
    8 38659893 The G… bioRxiv : the … bioRx… 2024 A… 2024/04/18… ""    ""     ""
    9 38014190 Testi… bioRxiv : the … bioRx… 2023 N… 2023/11/15… ""    ""     ""
    10 37904998 Perfo… bioRxiv : the … bioRx… 2025 F… 2025/02/03… ""    ""     ""
    # ℹ 47 more rows
    # ℹ 2 more variables: journalname <chr>, year <chr>
…
